…
``` r
df_LincolnData <- df_RAW_Lincoln
na.omit(df_LincolnData)
```

    ## # A tibble: 160 x 56
    ##    Date                Event        Plot Block Trt_num Trt_name Cultivar
    ##    <dttm>              <chr>       <dbl> <dbl>   <dbl> <chr>    <chr>   
    ##  1 2018-11-12 00:00:00 Intermed_H1     2     1       2 CB_E_0N  Cult B  
    ##  2 2018-11-12 00:00:00 Intermed_H1     4     1       3 CB_E_EN  Cult B  
    ##  3 2018-11-12 00:00:00 Intermed_H1     5     1       4 CB_E_LN  Cult B  
    ##  4 2018-11-12 00:00:00 Intermed_H1     6     1       1 CA_E_0N  Cult A  
    ##  5 2018-11-12 00:00:00 Intermed_H1     7     2       4 CB_E_LN  Cult B  
    ##  6 2018-11-12 00:00:00 Intermed_H1     8     2       3 CB_E_EN  Cult B  
    ##  7 2018-11-12 00:00:00 Intermed_H1     9     2       2 CB_E_0N  Cult B  
    ##  8 2018-11-12 00:00:00 Intermed_H1    11     2       1 CA_E_0N  Cult A  
    ##  9 2018-11-12 00:00:00 Intermed_H1    14     3       2 CB_E_0N  Cult B  
    ## 10 2018-11-12 00:00:00 Intermed_H1    15     3       4 CB_E_LN  Cult B  
    ## # ... with 150 more rows, and 49 more variables: Sowing_Date <chr>,
    ## #   N_timing <chr>, HA <dbl>, PP <dbl>, TFW <dbl>, SSFW <dbl>, SSDW <dbl>,
    ## #   partFW <dbl>, greenleafFW <dbl>, greenstemFW <dbl>, deadstemFW <dbl>,
    ## #   deadleafFW <dbl>, greenpodFW <dbl>, maturepodFW <dbl>,
    ## #   greengrainFW <dbl>, maturegrainFW <dbl>, Leaf_area <dbl>,
    ## #   Stem_area <dbl>, Pod_area <dbl>, greenleafDW <dbl>, greenstemDW <dbl>,
    ## #   deadstemDW <dbl>, deadleafDW <dbl>, greenpodDW <dbl>,
    ## #   maturepodDW <dbl>, greengrainDW <dbl>, maturegrainDW <dbl>,
    ## #   GreenPeaNum <dbl>, MaturePeaNum <dbl>, Final_ResidueSubFW <dbl>,
…
